{
  "slides": [
    {
      "components": [
        {
          "src": "http://i.imgur.com/64EAlt9.gif",
          "type": "Image",
          "x": 256,
          "y": 128,
          "scale": {
            "x": 1,
            "y": 1
          },
          "imageType": "GIF",
          "selected": false
        }
      ],
      "z": 0,
      "impScale": 3,
      "rotateX": 0,
      "rotateY": 1.57,
      "rotateZ": 0,
      "index": 0,
      "selected": false,
      "active": false,
      "background": "bg-transparent",
      "x": 126,
      "y": 81,
      "surface": "bg-custom-a0a0a0"
    },
    {
      "components": [
        {
          "TextBox": {},
          "x": 93,
          "y": 244.69387755102042,
          "scale": {
            "x": 1,
            "y": 1
          },
          "type": "TextBox",
          "text": "<b>JANUARY <font color=\"#314abe\">2013</font></b><br>",
          "size": 118,
          "selected": false
        },
        {
          "TextBox": {},
          "x": 98,
          "y": 383,
          "scale": {
            "x": 1,
            "y": 1
          },
          "type": "TextBox",
          "text": "marks the <font color=\"#4f4e66\">150th</font> anniversary<br>",
          "size": 66,
          "selected": false
        }
      ],
      "z": 0,
      "impScale": 3,
      "rotateX": 0,
      "rotateY": 0,
      "rotateZ": 0,
      "index": 1,
      "selected": false,
      "active": false,
      "background": "bg-transparent",
      "x": 512,
      "y": 156,
      "surface": "bg-surf-grad-smoke"
    },
    {
      "components": [
        {
          "TextBox": {},
          "x": 98,
          "y": 215,
          "scale": {
            "x": 1,
            "y": 1
          },
          "type": "TextBox",
          "text": "<font color=\"#777777\">of the world’s oldest</font><br>",
          "size": 94,
          "selected": false
        },
        {
          "TextBox": {},
          "x": 97,
          "y": 320,
          "scale": {
            "x": 1,
            "y": 1
          },
          "type": "TextBox",
          "text": "<font color=\"#983535\">UNDERGROUND</font><br>",
          "size": 106,
          "selected": false
        },
        {
          "TextBox": {},
          "x": 96,
          "y": 430,
          "scale": {
            "x": 1,
            "y": 1
          },
          "type": "TextBox",
          "text": "<font color=\"#4f4e66\">RAILWAY SYSTEM</font><br>",
          "size": 101,
          "selected": false
        }
      ],
      "z": 0,
      "impScale": 3,
      "rotateX": 0,
      "rotateY": 0,
      "rotateZ": 0,
      "index": 2,
      "selected": false,
      "active": false,
      "x": 512,
      "y": 204,
      "surface": "bg-surf-grad-smoke",
      "markdown": ""
    },
    {
      "components": [
        {
          "TextBox": {},
          "x": 69,
          "y": 176,
          "scale": {
            "x": 1,
            "y": 1
          },
          "type": "TextBox",
          "text": "<font color=\"#4f4e66\" face=\"Lato\">We dig deep...</font><br>",
          "size": 96,
          "selected": false
        }
      ],
      "z": 0,
      "impScale": 3,
      "rotateX": 0,
      "rotateY": 0,
      "rotateZ": 0,
      "index": 3,
      "selected": false,
      "active": false,
      "x": 509,
      "y": 361
    },
    {
      "components": [
        {
          "src": "http://i.imgur.com/IPjZGox.png",
          "type": "Image",
          "x": 415,
          "y": 328,
          "scale": {
            "x": 1,
            "y": 1
          },
          "imageType": "PNG",
          "selected": false
        }
      ],
      "z": 0,
      "impScale": 4,
      "rotateX": 0,
      "rotateY": 0,
      "rotateZ": 0,
      "index": 4,
      "selected": false,
      "active": false,
      "x": 524,
      "y": 376
    },
    {
      "components": [
        {
          "TextBox": {},
          "x": 104,
          "y": 252,
          "scale": {
            "x": 1,
            "y": 1
          },
          "type": "TextBox",
          "size": 91,
          "text": "<font color=\"#4f4e66\" face=\"Lato\">and uncover some of</font><br>",
          "selected": false
        },
        {
          "TextBox": {},
          "x": 105,
          "y": 356,
          "scale": {
            "x": 1,
            "y": 1
          },
          "type": "TextBox",
          "text": "<font face=\"Lato\" color=\"#983535\">the Tube’s hidden secrets</font><br>",
          "size": 74,
          "selected": false
        }
      ],
      "z": 0,
      "impScale": 4,
      "rotateX": 0,
      "rotateY": 0,
      "rotateZ": 1.57,
      "index": 5,
      "selected": false,
      "active": false,
      "x": 795,
      "y": 366
    },
    {
      "components": [
        {
          "TextBox": {},
          "x": 80,
          "y": 376,
          "scale": {
            "x": 1,
            "y": 1
          },
          "type": "TextBox",
          "size": 56,
          "text": "<font face=\"Lato\" color=\"#9c9c9c\">It seems to be interesting.</font>",
          "selected": false
        },
        {
          "TextBox": {},
          "x": 80,
          "y": 258,
          "scale": {
            "x": 1,
            "y": 1
          },
          "type": "TextBox",
          "size": 96,
          "text": "<font face=\"Lato\" color=\"#313131\">Let's check this out!</font>",
          "selected": false
        },
        {
          "src": "http://i.imgur.com/yMvdQas.png",
          "type": "Image",
          "x": 774,
          "y": 458,
          "scale": {
            "x": 1,
            "y": 1
          },
          "imageType": "PNG",
          "selected": false
        }
      ],
      "z": 0,
      "impScale": 3,
      "rotateX": 0,
      "rotateY": 0,
      "rotateZ": 0,
      "index": 6,
      "selected": true,
      "active": true,
      "x": 814,
      "y": 189
    },
    {
      "components": [
        {
          "src": "http://i.imgur.com/tTq7ynx.png",
          "type": "Image",
          "x": 262,
          "y": 182,
          "scale": {
            "x": 1,
            "y": 1
          },
          "imageType": "PNG",
          "selected": false
        }
      ],
      "z": 0,
      "impScale": 3,
      "rotateX": 0,
      "rotateY": 0,
      "rotateZ": 0,
      "index": 7,
      "selected": false,
      "active": false,
      "x": 1078,
      "y": 182,
      "surface": "bg-default"
    },
    {
      "components": [
        {
          "src": "http://i.imgur.com/tTq7ynx.png",
          "type": "Image",
          "x": 262,
          "y": 182,
          "scale": {
            "x": 1,
            "y": 1
          },
          "imageType": "PNG",
          "selected": false
        }
      ],
      "z": 0,
      "impScale": 3,
      "rotateX": 0,
      "rotateY": 0,
      "rotateZ": 0,
      "index": 8,
      "selected": false,
      "active": false,
      "x": 1079,
      "y": 183,
      "surface": "bg-custom-067fff"
    },
    {
      "components": [
        {
          "TextBox": {},
          "x": 36,
          "y": 258,
          "scale": {
            "x": 1,
            "y": 1
          },
          "type": "TextBox",
          "size": 202,
          "text": "<font face=\"League Gothic\" color=\"#eeeeee\">DID YOU KNOW?...</font><br>",
          "selected": false
        },
        {
          "src": "http://i.imgur.com/IRnFniu.png",
          "type": "Image",
          "x": 1314,
          "y": 631,
          "scale": {
            "x": 1,
            "y": 1
          },
          "imageType": "PNG",
          "selected": false
        }
      ],
      "z": 0,
      "impScale": 3,
      "rotateX": 0,
      "rotateY": 0,
      "rotateZ": 0,
      "index": 9,
      "selected": false,
      "active": false,
      "surface": "bg-custom-067fff",
      "x": 1079,
      "y": 338
    },
    {
      "components": [
        {
          "TextBox": {},
          "x": 35,
          "y": 285,
          "scale": {
            "x": 1,
            "y": 1
          },
          "type": "TextBox",
          "size": 62,
          "text": "<font face=\"League Gothic, sans-serif\"><font color=\"#eeeeee\">The average tube train travels a whopping <br>114,500 </font><font color=\"#eeeeee\">miles</font><font color=\"#eeeeee\">/184,269 km</font><font color=\"#eeeeee\"> every year.</font></font><br>",
          "selected": false
        },
        {
          "src": "http://i.imgur.com/aWFgAfD.png",
          "type": "Image",
          "x": 900,
          "y": 320,
          "scale": {
            "x": 1,
            "y": 1
          },
          "imageType": "PNG",
          "selected": false
        },
        {
          "TextBox": {},
          "x": 35,
          "y": 93,
          "scale": {
            "x": 1,
            "y": 1
          },
          "type": "TextBox",
          "size": 153,
          "text": "<font face=\"League Gothic\" color=\"#484848\">DID YOU KNOW?...</font><br>",
          "selected": false
        }
      ],
      "z": 0,
      "impScale": 3,
      "rotateX": 0,
      "rotateY": 0,
      "rotateZ": 0,
      "index": 10,
      "selected": false,
      "active": false,
      "surface": "bg-surf-grad-black",
      "x": 1795,
      "y": 341
    },
    {
      "components": [
        {
          "TextBox": {},
          "x": 35,
          "y": 238,
          "scale": {
            "x": 1,
            "y": 1
          },
          "type": "TextBox",
          "size": 58,
          "text": "<font face=\"League Gothic, sans-serif\" color=\"#000000\">Waterloo must be avoided at all costs during rush-hour.<br>It is not only London’s busiest  tube station annually, <br>receiving  82 million visitors,  it also sees 57,000 people <br>just enter during the  three-hour-long morning rush hour.</font><br>",
          "selected": false
        },
        {
          "src": "http://i.imgur.com/aiulz2q.png",
          "type": "Image",
          "x": 448,
          "y": 559,
          "scale": {
            "x": 1,
            "y": 1
          },
          "imageType": "PNG",
          "selected": false
        },
        {
          "TextBox": {},
          "x": 35,
          "y": 39,
          "scale": {
            "x": 1,
            "y": 1
          },
          "type": "TextBox",
          "size": 153,
          "text": "<font face=\"League Gothic\" color=\"#833636\">DID YOU KNOW?...</font><br>",
          "selected": false
        },
        {
          "src": "http://i.imgur.com/xC0Jqq9.png",
          "type": "Image",
          "x": 46,
          "y": 767,
          "scale": {
            "x": 0.42857142857142855,
            "y": 0.42857142857142855,
            "width": 60,
            "height": 98.57142857142857
          },
          "imageType": "PNG",
          "selected": false,
          "rotate": -2.32
        },
        {
          "src": "http://i.imgur.com/5Ng3Pgc.png",
          "type": "Image",
          "x": 959,
          "y": 775,
          "scale": {
            "x": 0.368421052631579,
            "y": 0.368421052631579,
            "width": 56.00000000000001,
            "height": 84.73684210526316
          },
          "imageType": "PNG",
          "selected": false,
          "rotate": 2.85
        },
        {
          "src": "http://i.imgur.com/UBSRFeF.png",
          "type": "Image",
          "x": 446,
          "y": 987,
          "scale": {
            "x": 0.4759036144578313,
            "y": 0.4759036144578313,
            "width": 79,
            "height": 108.50602409638553
          },
          "imageType": "PNG",
          "selected": false
        },
        {
          "src": "http://i.imgur.com/ry6MkXx.png",
          "type": "Image",
          "x": 653,
          "y": 824,
          "scale": {
            "x": 0.6188340807174888,
            "y": 0.6188340807174888,
            "width": 138,
            "height": 142.33183856502242
          },
          "imageType": "PNG",
          "selected": false,
          "rotate": 3.14
        },
        {
          "src": "http://i.imgur.com/07EaQ81.png",
          "type": "Image",
          "x": 492,
          "y": 819,
          "scale": {
            "x": 0.4551282051282051,
            "y": 0.4551282051282051,
            "width": 71,
            "height": 104.67948717948718
          },
          "imageType": "PNG",
          "selected": false,
          "rotate": 2.1
        },
        {
          "src": "http://i.imgur.com/UBSRFeF.png",
          "type": "Image",
          "x": 111,
          "y": 1038,
          "scale": {
            "x": 0.4759036144578313,
            "y": 0.4759036144578313,
            "width": 79,
            "height": 108.50602409638553
          },
          "imageType": "PNG",
          "selected": false,
          "rotate": -1.83
        },
        {
          "src": "http://i.imgur.com/07EaQ81.png",
          "type": "Image",
          "x": 333,
          "y": 1170,
          "scale": {
            "x": 0.4551282051282051,
            "y": 0.4551282051282051,
            "width": 71,
            "height": 104.67948717948718
          },
          "imageType": "PNG",
          "selected": false,
          "rotate": -2.19
        },
        {
          "src": "http://i.imgur.com/ry6MkXx.png",
          "type": "Image",
          "x": 70,
          "y": 912,
          "scale": {
            "x": 0.6188340807174888,
            "y": 0.6188340807174888,
            "width": 138,
            "height": 142.33183856502242
          },
          "imageType": "PNG",
          "selected": false,
          "rotate": 3.14
        },
        {
          "src": "http://i.imgur.com/5Ng3Pgc.png",
          "type": "Image",
          "x": 63,
          "y": 1244,
          "scale": {
            "x": 0.368421052631579,
            "y": 0.368421052631579,
            "width": 56.00000000000001,
            "height": 84.73684210526316
          },
          "imageType": "PNG",
          "selected": false,
          "rotate": 2.85
        },
        {
          "src": "http://i.imgur.com/ry6MkXx.png",
          "type": "Image",
          "x": 545,
          "y": 1204,
          "scale": {
            "x": 0.6188340807174888,
            "y": 0.6188340807174888,
            "width": 138,
            "height": 142.33183856502242
          },
          "imageType": "PNG",
          "selected": false,
          "rotate": 5.1
        },
        {
          "src": "http://i.imgur.com/UBSRFeF.png",
          "type": "Image",
          "x": 802,
          "y": 1229,
          "scale": {
            "x": 0.4759036144578313,
            "y": 0.4759036144578313,
            "width": 79,
            "height": 108.50602409638553
          },
          "imageType": "PNG",
          "selected": false
        },
        {
          "src": "http://i.imgur.com/xC0Jqq9.png",
          "type": "Image",
          "x": 850,
          "y": 1035,
          "scale": {
            "x": 0.42857142857142855,
            "y": 0.42857142857142855,
            "width": 60,
            "height": 98.57142857142857
          },
          "imageType": "PNG",
          "selected": false,
          "rotate": -2.32
        },
        {
          "src": "http://i.imgur.com/UBSRFeF.png",
          "type": "Image",
          "x": 751,
          "y": 1422,
          "scale": {
            "x": 0.4759036144578313,
            "y": 0.4759036144578313,
            "width": 79,
            "height": 108.50602409638553
          },
          "imageType": "PNG",
          "selected": false,
          "rotate": -1.83
        },
        {
          "src": "http://i.imgur.com/xC0Jqq9.png",
          "type": "Image",
          "x": 672,
          "y": 1126,
          "scale": {
            "x": 0.42857142857142855,
            "y": 0.42857142857142855,
            "width": 60,
            "height": 98.57142857142857
          },
          "imageType": "PNG",
          "selected": false,
          "rotate": -2.32
        },
        {
          "src": "http://i.imgur.com/ry6MkXx.png",
          "type": "Image",
          "x": 360,
          "y": 1443,
          "scale": {
            "x": 0.6188340807174888,
            "y": 0.6188340807174888,
            "width": 138,
            "height": 142.33183856502242
          },
          "imageType": "PNG",
          "selected": false,
          "rotate": 3.68
        },
        {
          "src": "http://i.imgur.com/5Ng3Pgc.png",
          "type": "Image",
          "x": 703,
          "y": 1628,
          "scale": {
            "x": 0.368421052631579,
            "y": 0.368421052631579,
            "width": 56.00000000000001,
            "height": 84.73684210526316
          },
          "imageType": "PNG",
          "selected": false,
          "rotate": 2.85
        },
        {
          "src": "http://i.imgur.com/UBSRFeF.png",
          "type": "Image",
          "x": 221,
          "y": 1377,
          "scale": {
            "x": 0.4759036144578313,
            "y": 0.4759036144578313,
            "width": 79,
            "height": 108.50602409638553
          },
          "imageType": "PNG",
          "selected": false
        },
        {
          "src": "http://i.imgur.com/07EaQ81.png",
          "type": "Image",
          "x": 458,
          "y": 1543,
          "scale": {
            "x": 0.4551282051282051,
            "y": 0.4551282051282051,
            "width": 71,
            "height": 104.67948717948718
          },
          "imageType": "PNG",
          "selected": false,
          "rotate": -2.19
        },
        {
          "src": "http://i.imgur.com/07EaQ81.png",
          "type": "Image",
          "x": 267,
          "y": 1209,
          "scale": {
            "x": 0.4551282051282051,
            "y": 0.4551282051282051,
            "width": 71,
            "height": 104.67948717948718
          },
          "imageType": "PNG",
          "selected": false,
          "rotate": 2.1
        },
        {
          "src": "http://i.imgur.com/ry6MkXx.png",
          "type": "Image",
          "x": 428,
          "y": 1214,
          "scale": {
            "x": 0.6188340807174888,
            "y": 0.6188340807174888,
            "width": 138,
            "height": 142.33183856502242
          },
          "imageType": "PNG",
          "selected": false,
          "rotate": 3.14
        },
        {
          "src": "http://i.imgur.com/uJEZF03.png",
          "type": "Image",
          "x": 788,
          "y": 2451,
          "scale": {
            "x": 0.2153925619834711,
            "y": 0.2153925619834711,
            "width": 417.00000000000006,
            "height": 464.3863636363637
          },
          "imageType": "PNG",
          "selected": false
        },
        {
          "src": "http://i.imgur.com/5Ng3Pgc.png",
          "type": "Image",
          "x": 800,
          "y": 2232,
          "scale": {
            "x": 0.368421052631579,
            "y": 0.368421052631579,
            "width": 56.00000000000001,
            "height": 84.73684210526316
          },
          "imageType": "PNG",
          "selected": false,
          "rotate": 2.85
        },
        {
          "src": "http://i.imgur.com/07EaQ81.png",
          "type": "Image",
          "x": 555,
          "y": 2147,
          "scale": {
            "x": 0.4551282051282051,
            "y": 0.4551282051282051,
            "width": 71,
            "height": 104.67948717948718
          },
          "imageType": "PNG",
          "selected": false,
          "rotate": -2.19
        },
        {
          "src": "http://i.imgur.com/ry6MkXx.png",
          "type": "Image",
          "x": 525,
          "y": 1818,
          "scale": {
            "x": 0.6188340807174888,
            "y": 0.6188340807174888,
            "width": 138,
            "height": 142.33183856502242
          },
          "imageType": "PNG",
          "selected": false,
          "rotate": 2.06
        },
        {
          "src": "http://i.imgur.com/UBSRFeF.png",
          "type": "Image",
          "x": 208,
          "y": 1642,
          "scale": {
            "x": 0.4759036144578313,
            "y": 0.4759036144578313,
            "width": 79,
            "height": 108.50602409638553
          },
          "imageType": "PNG",
          "selected": false,
          "rotate": -1.83
        },
        {
          "src": "http://i.imgur.com/07EaQ81.png",
          "type": "Image",
          "x": 410,
          "y": 2299,
          "scale": {
            "x": 0.4551282051282051,
            "y": 0.4551282051282051,
            "width": 71,
            "height": 104.67948717948718
          },
          "imageType": "PNG",
          "selected": false,
          "rotate": 2.1
        },
        {
          "src": "http://i.imgur.com/UBSRFeF.png",
          "type": "Image",
          "x": 364,
          "y": 2467,
          "scale": {
            "x": 0.4759036144578313,
            "y": 0.4759036144578313,
            "width": 79,
            "height": 108.50602409638553
          },
          "imageType": "PNG",
          "selected": false
        },
        {
          "src": "http://i.imgur.com/07EaQ81.png",
          "type": "Image",
          "x": 70,
          "y": 2393,
          "scale": {
            "x": 0.4551282051282051,
            "y": 0.4551282051282051,
            "width": 71,
            "height": 104.67948717948718
          },
          "imageType": "PNG",
          "selected": false,
          "rotate": 0.74
        },
        {
          "src": "http://i.imgur.com/5Ng3Pgc.png",
          "type": "Image",
          "x": 19,
          "y": 2089,
          "scale": {
            "x": 0.368421052631579,
            "y": 0.368421052631579,
            "width": 56.00000000000001,
            "height": 84.73684210526316
          },
          "imageType": "PNG",
          "selected": false,
          "rotate": 2.85
        },
        {
          "src": "http://i.imgur.com/5Ng3Pgc.png",
          "type": "Image",
          "x": 248,
          "y": 2853,
          "scale": {
            "x": 0.368421052631579,
            "y": 0.368421052631579,
            "width": 56.00000000000001,
            "height": 84.73684210526316
          },
          "imageType": "PNG",
          "selected": false,
          "rotate": 2.85
        }
      ],
      "z": 0,
      "impScale": 3,
      "rotateX": 0,
      "rotateY": 0,
      "rotateZ": 0,
      "index": 11,
      "selected": false,
      "active": false,
      "x": 2125,
      "y": 341,
      "background": "bg-transparent",
      "surface": "bg-surf-grad-smoke"
    },
    {
      "components": [
        {
          "TextBox": {},
          "x": 10,
          "y": 407,
          "scale": {
            "x": 1,
            "y": 1
          },
          "type": "TextBox",
          "size": 64,
          "text": "<font face=\"League Gothic\" color=\"#161616\">Around </font><font face=\"League Gothic\" color=\"#a83838\">19 000</font><font face=\"League Gothic\" color=\"#161616\"> people work at the Underground.</font><br>",
          "selected": false
        },
        {
          "TextBox": {},
          "x": 16,
          "y": 233,
          "scale": {
            "x": 1,
            "y": 1
          },
          "type": "TextBox",
          "size": 153,
          "text": "<font face=\"League Gothic\" color=\"#161616\">DID YOU KNOW?...</font><br>",
          "selected": false
        },
        {
          "TextBox": {},
          "x": 10,
          "y": 228,
          "scale": {
            "x": 1,
            "y": 1
          },
          "type": "TextBox",
          "size": 153,
          "text": "<font face=\"League Gothic\" color=\"#af4f4f\">DID YOU KNOW?...</font><br>",
          "selected": false
        },
        {
          "src": "http://i.imgur.com/jTc1Sjf.png",
          "type": "Image",
          "x": 26,
          "y": 628,
          "scale": {
            "x": 0.18291666666666667,
            "y": 0.18291666666666667,
            "width": 439,
            "height": 139.3825
          },
          "imageType": "PNG",
          "selected": false,
          "rotate": 6.27
        },
        {
          "src": "http://i.imgur.com/jTc1Sjf.png",
          "type": "Image",
          "x": 74,
          "y": 625,
          "scale": {
            "x": 0.18291666666666667,
            "y": 0.18291666666666667,
            "width": 439,
            "height": 139.3825
          },
          "imageType": "PNG",
          "selected": false,
          "rotate": 6.27
        },
        {
          "src": "http://i.imgur.com/jTc1Sjf.png",
          "type": "Image",
          "x": 365,
          "y": 632,
          "scale": {
            "x": 0.18291666666666667,
            "y": 0.18291666666666667,
            "width": 439,
            "height": 139.3825
          },
          "imageType": "PNG",
          "selected": false,
          "rotate": 6.27
        },
        {
          "src": "http://i.imgur.com/jTc1Sjf.png",
          "type": "Image",
          "x": 529,
          "y": 628,
          "scale": {
            "x": 0.18291666666666667,
            "y": 0.18291666666666667,
            "width": 439,
            "height": 139.3825
          },
          "imageType": "PNG",
          "selected": false,
          "rotate": 6.27
        },
        {
          "src": "http://i.imgur.com/jTc1Sjf.png",
          "type": "Image",
          "x": 504,
          "y": 625,
          "scale": {
            "x": 0.18291666666666667,
            "y": 0.18291666666666667,
            "width": 439,
            "height": 139.3825
          },
          "imageType": "PNG",
          "selected": false,
          "rotate": 6.27
        },
        {
          "src": "http://i.imgur.com/jTc1Sjf.png",
          "type": "Image",
          "x": 614,
          "y": 631,
          "scale": {
            "x": 0.18291666666666667,
            "y": 0.18291666666666667,
            "width": 439,
            "height": 139.3825
          },
          "imageType": "PNG",
          "selected": false,
          "rotate": 6.27
        },
        {
          "src": "http://i.imgur.com/jTc1Sjf.png",
          "type": "Image",
          "x": -35,
          "y": 633,
          "scale": {
            "x": 0.18291666666666667,
            "y": 0.18291666666666667,
            "width": 439,
            "height": 139.3825
          },
          "imageType": "PNG",
          "selected": false,
          "rotate": 6.27
        },
        {
          "src": "http://i.imgur.com/jTc1Sjf.png",
          "type": "Image",
          "x": -193,
          "y": 641,
          "scale": {
            "x": 0.18291666666666667,
            "y": 0.18291666666666667,
            "width": 439,
            "height": 139.3825
          },
          "imageType": "PNG",
          "selected": false,
          "rotate": 6.27
        },
        {
          "src": "http://i.imgur.com/jTc1Sjf.png",
          "type": "Image",
          "x": -143,
          "y": 629,
          "scale": {
            "x": 0.18291666666666667,
            "y": 0.18291666666666667,
            "width": 439,
            "height": 139.3825
          },
          "imageType": "PNG",
          "selected": false,
          "rotate": 6.27
        },
        {
          "src": "http://i.imgur.com/jTc1Sjf.png",
          "type": "Image",
          "x": 772,
          "y": 640,
          "scale": {
            "x": 0.18291666666666667,
            "y": 0.18291666666666667,
            "width": 439,
            "height": 139.3825
          },
          "imageType": "PNG",
          "selected": false,
          "rotate": 6.27
        },
        {
          "src": "http://i.imgur.com/jTc1Sjf.png",
          "type": "Image",
          "x": 253,
          "y": 627,
          "scale": {
            "x": 0.18291666666666667,
            "y": 0.18291666666666667,
            "width": 439,
            "height": 139.3825
          },
          "imageType": "PNG",
          "selected": false,
          "rotate": 6.27
        },
        {
          "src": "http://i.imgur.com/jTc1Sjf.png",
          "type": "Image",
          "x": -160,
          "y": 644,
          "scale": {
            "x": 0.18291666666666667,
            "y": 0.18291666666666667,
            "width": 439,
            "height": 139.3825
          },
          "imageType": "PNG",
          "selected": false,
          "rotate": 6.27
        },
        {
          "src": "http://i.imgur.com/jTc1Sjf.png",
          "type": "Image",
          "x": 679,
          "y": 638,
          "scale": {
            "x": 0.18291666666666667,
            "y": 0.18291666666666667,
            "width": 439,
            "height": 139.3825
          },
          "imageType": "PNG",
          "selected": false,
          "rotate": 6.27
        },
        {
          "src": "http://i.imgur.com/jTc1Sjf.png",
          "type": "Image",
          "x": 449,
          "y": 629,
          "scale": {
            "x": 0.18291666666666667,
            "y": 0.18291666666666667,
            "width": 439,
            "height": 139.3825
          },
          "imageType": "PNG",
          "selected": false,
          "rotate": 6.27
        },
        {
          "src": "http://i.imgur.com/jTc1Sjf.png",
          "type": "Image",
          "x": -90,
          "y": 642,
          "scale": {
            "x": 0.18291666666666667,
            "y": 0.18291666666666667,
            "width": 439,
            "height": 139.3825
          },
          "imageType": "PNG",
          "selected": false,
          "rotate": 6.27
        },
        {
          "src": "http://i.imgur.com/jTc1Sjf.png",
          "type": "Image",
          "x": 785,
          "y": 637,
          "scale": {
            "x": 0.18291666666666667,
            "y": 0.18291666666666667,
            "width": 439,
            "height": 139.3825
          },
          "imageType": "PNG",
          "selected": false,
          "rotate": 6.27
        },
        {
          "src": "http://i.imgur.com/jTc1Sjf.png",
          "type": "Image",
          "x": 796,
          "y": 634,
          "scale": {
            "x": 0.18291666666666667,
            "y": 0.18291666666666667,
            "width": 439,
            "height": 139.3825
          },
          "imageType": "PNG",
          "selected": false,
          "rotate": 6.27
        },
        {
          "src": "http://i.imgur.com/jTc1Sjf.png",
          "type": "Image",
          "x": 878,
          "y": 645,
          "scale": {
            "x": 0.18291666666666667,
            "y": 0.18291666666666667,
            "width": 439,
            "height": 139.3825
          },
          "imageType": "PNG",
          "selected": false,
          "rotate": 6.27
        },
        {
          "src": "http://i.imgur.com/jTc1Sjf.png",
          "type": "Image",
          "x": -253,
          "y": 626,
          "scale": {
            "x": 0.18291666666666667,
            "y": 0.18291666666666667,
            "width": 439,
            "height": 139.3825
          },
          "imageType": "PNG",
          "selected": false,
          "rotate": 6.27
        },
        {
          "src": "http://i.imgur.com/jTc1Sjf.png",
          "type": "Image",
          "x": -205,
          "y": 630,
          "scale": {
            "x": 0.18291666666666667,
            "y": 0.18291666666666667,
            "width": 439,
            "height": 139.3825
          },
          "imageType": "PNG",
          "selected": false,
          "rotate": 6.27
        },
        {
          "src": "http://i.imgur.com/jTc1Sjf.png",
          "type": "Image",
          "x": -279,
          "y": 629,
          "scale": {
            "x": 0.18291666666666667,
            "y": 0.18291666666666667,
            "width": 439,
            "height": 139.3825
          },
          "imageType": "PNG",
          "selected": false,
          "rotate": 6.27
        },
        {
          "src": "http://i.imgur.com/jTc1Sjf.png",
          "type": "Image",
          "x": -390,
          "y": 637,
          "scale": {
            "x": 0.18291666666666667,
            "y": 0.18291666666666667,
            "width": 439,
            "height": 139.3825
          },
          "imageType": "PNG",
          "selected": false,
          "rotate": 6.27
        },
        {
          "src": "http://i.imgur.com/jTc1Sjf.png",
          "type": "Image",
          "x": -342,
          "y": 633,
          "scale": {
            "x": 0.18291666666666667,
            "y": 0.18291666666666667,
            "width": 439,
            "height": 139.3825
          },
          "imageType": "PNG",
          "selected": false,
          "rotate": 6.27
        },
        {
          "src": "http://i.imgur.com/jTc1Sjf.png",
          "type": "Image",
          "x": -339,
          "y": 631,
          "scale": {
            "x": 0.18291666666666667,
            "y": 0.18291666666666667,
            "width": 439,
            "height": 139.3825
          },
          "imageType": "PNG",
          "selected": false,
          "rotate": 6.27
        },
        {
          "src": "http://i.imgur.com/jTc1Sjf.png",
          "type": "Image",
          "x": -366,
          "y": 642,
          "scale": {
            "x": 0.18291666666666667,
            "y": 0.18291666666666667,
            "width": 439,
            "height": 139.3825
          },
          "imageType": "PNG",
          "selected": false,
          "rotate": 6.27
        },
        {
          "src": "http://i.imgur.com/jTc1Sjf.png",
          "type": "Image",
          "x": -638,
          "y": 644,
          "scale": {
            "x": 0.18291666666666667,
            "y": 0.18291666666666667,
            "width": 439,
            "height": 139.3825
          },
          "imageType": "PNG",
          "selected": false,
          "rotate": 6.27
        },
        {
          "src": "http://i.imgur.com/jTc1Sjf.png",
          "type": "Image",
          "x": -670,
          "y": 640,
          "scale": {
            "x": 0.18291666666666667,
            "y": 0.18291666666666667,
            "width": 439,
            "height": 139.3825
          },
          "imageType": "PNG",
          "selected": false,
          "rotate": 6.27
        },
        {
          "src": "http://i.imgur.com/jTc1Sjf.png",
          "type": "Image",
          "x": 218,
          "y": 628,
          "scale": {
            "x": 0.18291666666666667,
            "y": 0.18291666666666667,
            "width": 439,
            "height": 139.3825
          },
          "imageType": "PNG",
          "selected": false,
          "rotate": 6.27
        },
        {
          "src": "http://i.imgur.com/jTc1Sjf.png",
          "type": "Image",
          "x": 160,
          "y": 627,
          "scale": {
            "x": 0.18291666666666667,
            "y": 0.18291666666666667,
            "width": 439,
            "height": 139.3825
          },
          "imageType": "PNG",
          "selected": false,
          "rotate": 6.27
        },
        {
          "src": "http://i.imgur.com/jTc1Sjf.png",
          "type": "Image",
          "x": 233,
          "y": 643,
          "scale": {
            "x": 0.18291666666666667,
            "y": 0.18291666666666667,
            "width": 439,
            "height": 139.3825
          },
          "imageType": "PNG",
          "selected": false,
          "rotate": 6.27
        },
        {
          "src": "http://i.imgur.com/jTc1Sjf.png",
          "type": "Image",
          "x": 853,
          "y": 629,
          "scale": {
            "x": 0.18291666666666667,
            "y": 0.18291666666666667,
            "width": 439,
            "height": 139.3825
          },
          "imageType": "PNG",
          "selected": false,
          "rotate": 6.27
        },
        {
          "src": "http://i.imgur.com/jTc1Sjf.png",
          "type": "Image",
          "x": 884,
          "y": 630,
          "scale": {
            "x": 0.18291666666666667,
            "y": 0.18291666666666667,
            "width": 439,
            "height": 139.3825
          },
          "imageType": "PNG",
          "selected": false,
          "rotate": 6.27
        },
        {
          "src": "http://i.imgur.com/jTc1Sjf.png",
          "type": "Image",
          "x": 692,
          "y": 632,
          "scale": {
            "x": 0.18291666666666667,
            "y": 0.18291666666666667,
            "width": 439,
            "height": 139.3825
          },
          "imageType": "PNG",
          "selected": false,
          "rotate": 6.27
        }
      ],
      "z": 0,
      "impScale": 3,
      "rotateX": 0,
      "rotateY": 0,
      "rotateZ": 0,
      "index": 12,
      "selected": false,
      "active": false,
      "surface": "bg-surf-grad-smoke",
      "x": 2124,
      "y": 795
    },
    {
      "components": [
        {
          "TextBox": {},
          "x": 37,
          "y": 309,
          "scale": {
            "x": 1,
            "y": 1
          },
          "type": "TextBox",
          "size": 62,
          "text": "<div style=\"text-align: center;\"><span style=\"color: rgb(238, 238, 238); font-family: 'League Gothic', sans-serif;\">The Underground has its own coin!&nbsp;</span></div><font face=\"League Gothic, sans-serif\"><div style=\"text-align: center;\"><font color=\"#eeeeee\">A special edition, commemorative </font><font color=\"#f9e25f\">£2</font><font color=\"#eeeeee\"> piece </font><font color=\"#eeeeee\">is being&nbsp;</font></div><font color=\"#eeeeee\"><div style=\"text-align: center;\"><font color=\"#eeeeee\">rolled out to celebrate the </font><font color=\"#f9e25f\">150th</font><font color=\"#eeeeee\"> anniversary.&nbsp;</font></div></font><font color=\"#eeeeee\"><div style=\"text-align: center;\">If only that coin could get you a fare…</div></font></font>",
          "selected": false
        },
        {
          "TextBox": {},
          "x": 36,
          "y": 90,
          "scale": {
            "x": 1,
            "y": 1
          },
          "type": "TextBox",
          "size": 153,
          "text": "<font face=\"League Gothic\" color=\"#484848\">DID YOU KNOW?...</font><br>",
          "selected": false
        },
        {
          "src": "http://i.imgur.com/oRD5fQv.jpg",
          "type": "Image",
          "x": 189,
          "y": 89,
          "scale": {
            "x": 0.5386740331491713,
            "y": 0.5386740331491713,
            "width": 195,
            "height": 190.15193370165747
          },
          "imageType": "JPG",
          "selected": false
        }
      ],
      "z": 0,
      "impScale": 3,
      "rotateX": 0,
      "rotateY": 0,
      "rotateZ": 0,
      "index": 13,
      "selected": false,
      "active": false,
      "surface": "bg-custom-000000",
      "x": 2440,
      "y": 790
    },
    {
      "components": [
        {
          "TextBox": {},
          "x": 115,
          "y": 407,
          "scale": {
            "x": 1,
            "y": 1
          },
          "type": "TextBox",
          "size": 64,
          "text": "<font color=\"#161616\" face=\"League Gothic\">There are </font><font face=\"League Gothic\" color=\"#af4f4f\">64 lifts</font><font color=\"#161616\" face=\"League Gothic\"> in the Underground system.</font><br>",
          "selected": false
        },
        {
          "TextBox": {},
          "x": 161,
          "y": 226,
          "scale": {
            "x": 1,
            "y": 1
          },
          "type": "TextBox",
          "size": 153,
          "text": "<font face=\"League Gothic\" color=\"#161616\">DID YOU KNOW?...</font><br>",
          "selected": false
        }
      ],
      "z": 0,
      "impScale": 3,
      "rotateX": 0,
      "rotateY": 0,
      "rotateZ": 0,
      "index": 14,
      "selected": false,
      "active": false,
      "x": 2442,
      "y": 1069,
      "surface": "bg-surf-grad-smoke"
    },
    {
      "components": [
        {
          "TextBox": {},
          "x": 27,
          "y": 344,
          "scale": {
            "x": 1,
            "y": 1
          },
          "type": "TextBox",
          "size": 64,
          "text": "<font color=\"#161616\" face=\"League Gothic\">The deepest lift shaft is at Hampstead and </font><font face=\"League Gothic\" color=\"#af4f4f\">55.2m</font><font color=\"#161616\" face=\"League Gothic\"> deep.</font><br>",
          "selected": false
        }
      ],
      "z": 0,
      "impScale": 3,
      "rotateX": 0,
      "rotateY": 0,
      "rotateZ": 0,
      "index": 15,
      "selected": false,
      "active": false,
      "x": 2442,
      "y": 1103,
      "surface": "bg-surf-grad-smoke"
    },
    {
      "components": [
        {
          "TextBox": {},
          "x": 89,
          "y": 254,
          "scale": {
            "x": 1,
            "y": 1
          },
          "type": "TextBox",
          "size": 190,
          "text": "<font face=\"League Gothic\" color=\"#d07777\">DID YOU KNOW?...</font><br>",
          "selected": false
        },
        {
          "TextBox": {},
          "x": 76,
          "y": 253,
          "scale": {
            "x": 1,
            "y": 1
          },
          "type": "TextBox",
          "size": 191,
          "text": "<font face=\"League Gothic\" color=\"#eeeeee\">DID YOU KNOW?...</font><br>",
          "selected": false
        }
      ],
      "z": 0,
      "impScale": 3,
      "rotateX": 0,
      "rotateY": 0,
      "rotateZ": 0.79,
      "index": 16,
      "selected": false,
      "active": false,
      "surface": "bg-surf-grad-darkgreen",
      "x": 2276,
      "y": 1406
    },
    {
      "components": [
        {
          "TextBox": {},
          "x": 135,
          "y": 184,
          "scale": {
            "x": 1,
            "y": 1
          },
          "type": "TextBox",
          "size": 64,
          "text": "<div style=\"text-align: center;\"><font color=\"#eeeeee\" face=\"League Gothic\">The Animals of the Underground &nbsp;</font><font color=\"#eeeeee\" face=\"League Gothic\">is an art&nbsp;</font></div><div style=\"text-align: center;\"><span style=\"color: rgb(238, 238, 238); font-family: 'League Gothic';\">project started by Paul Middlewick&nbsp;</span><span style=\"color: rgb(238, 238, 238); font-family: 'League Gothic';\">in 1988&nbsp;</span></div><div style=\"text-align: center;\"><span style=\"color: rgb(238, 238, 238); font-family: 'League Gothic';\">after he spotted an elephant&nbsp;</span><span style=\"color: rgb(238, 238, 238); font-family: 'League Gothic';\">shape while&nbsp;</span></div><div style=\"text-align: center;\"><span style=\"color: rgb(238, 238, 238); font-family: 'League Gothic';\">staring&nbsp;</span><span style=\"color: rgb(238, 238, 238); font-family: 'League Gothic';\">at the tube&nbsp;</span><span style=\"color: rgb(238, 238, 238); font-family: 'League Gothic';\">map during his daily&nbsp;</span></div><div style=\"text-align: center;\"><span style=\"color: rgb(238, 238, 238); font-family: 'League Gothic';\">journey home from work.&nbsp;</span></div>",
          "selected": false
        }
      ],
      "z": 0,
      "impScale": 3,
      "rotateX": 0,
      "rotateY": 0,
      "rotateZ": 1.57,
      "index": 17,
      "selected": false,
      "active": false,
      "surface": "bg-surf-grad-darkgreen",
      "x": 1932,
      "y": 1425
    },
    {
      "components": [
        {
          "TextBox": {},
          "x": 74,
          "y": 224,
          "scale": {
            "x": 1,
            "y": 1
          },
          "type": "TextBox",
          "size": 64,
          "text": "<div style=\"text-align: center;\"><font color=\"#eeeeee\" face=\"League Gothic\">Created using the tube lines,&nbsp;</font><span style=\"color: rgb(238, 238, 238); font-family: 'League Gothic';\">stations and junctions&nbsp;</span></div><div style=\"text-align: center;\"><span style=\"color: rgb(238, 238, 238); font-family: 'League Gothic';\">of the London Underground&nbsp;</span><span style=\"color: rgb(238, 238, 238); font-family: 'League Gothic';\">map, the animal&nbsp;</span></div><div style=\"text-align: center;\"><span style=\"color: rgb(238, 238, 238); font-family: 'League Gothic';\">collection&nbsp;</span><span style=\"color: rgb(238, 238, 238); font-family: 'League Gothic';\">grows all the time and&nbsp;</span><span style=\"color: rgb(238, 238, 238); font-family: 'League Gothic';\">includes whales,&nbsp;</span></div><div style=\"text-align: center;\"><span style=\"color: rgb(238, 238, 238); font-family: 'League Gothic';\">birds and bats.</span></div>",
          "selected": false
        }
      ],
      "z": 0,
      "impScale": 3,
      "rotateX": 0,
      "rotateY": 0,
      "rotateZ": 1.57,
      "index": 18,
      "selected": false,
      "active": false,
      "surface": "bg-surf-grad-darkgreen",
      "x": 1811,
      "y": 1055
    },
    {
      "components": [
        {
          "src": "http://i.imgur.com/22hEVP6.jpg",
          "type": "Image",
          "x": 269,
          "y": 98,
          "scale": {
            "x": 1,
            "y": 1
          },
          "imageType": "JPG",
          "selected": false
        },
        {
          "TextBox": {},
          "x": 269,
          "y": 450,
          "scale": {
            "x": 1,
            "y": 1
          },
          "type": "TextBox",
          "size": 46,
          "text": "<div style=\"text-align: center;\"><span style=\"color: rgb(238, 238, 238); font-family: 'League Gothic';\">An elephant is one of “The Animals”&nbsp;</span></div><font color=\"#eeeeee\" face=\"League Gothic\"><div style=\"text-align: center;\">that can be found on London tube&nbsp;</div><div style=\"text-align: center;\">maps when using a little imagination.</div></font>",
          "selected": false
        }
      ],
      "z": 0,
      "impScale": 3,
      "rotateX": 0,
      "rotateY": 0,
      "rotateZ": 0.79,
      "index": 19,
      "selected": false,
      "active": false,
      "surface": "bg-surf-grad-darkgreen",
      "x": 1672,
      "y": 586
    },
    {
      "components": [
        {
          "TextBox": {},
          "x": 6,
          "y": 224,
          "scale": {
            "x": 1,
            "y": 1
          },
          "type": "TextBox",
          "size": 64,
          "text": "<div style=\"text-align: center;\"><font color=\"#eeeeee\" face=\"League Gothic\">On 11 July 2000, a driver fell asleep at the controls.&nbsp;</font></div><div style=\"text-align: center;\"><font color=\"#eeeeee\" face=\"League Gothic\">The Northern Line train – with more than&nbsp;</font><span style=\"color: rgb(238, 238, 238); font-family: 'League Gothic';\">100&nbsp;</span></div><div style=\"text-align: center;\"><span style=\"color: rgb(238, 238, 238); font-family: 'League Gothic';\">passengers &nbsp;</span><span style=\"color: rgb(238, 238, 238); font-family: 'League Gothic';\">onboard – rolled backwards in the&nbsp;</span></div><div style=\"text-align: center;\"><font color=\"#eeeeee\" face=\"League Gothic\">tunnel for almost a kilometre through Chalk Farm station.</font></div>",
          "selected": false
        }
      ],
      "z": 0,
      "impScale": 3,
      "rotateX": 0,
      "rotateY": 0,
      "rotateZ": 0.79,
      "index": 20,
      "selected": false,
      "active": false,
      "surface": "bg-surf-grad-lavender",
      "x": 1532,
      "y": 721
    },
    {
      "components": [
        {
          "TextBox": {},
          "x": 163,
          "y": 264,
          "scale": {
            "x": 1,
            "y": 1
          },
          "type": "TextBox",
          "size": 64,
          "text": "<div style=\"text-align: center;\"><font color=\"#eeeeee\" face=\"League Gothic\">Luckily, the train went through a signal&nbsp;</font></div><div style=\"text-align: center;\"><font color=\"#eeeeee\" face=\"League Gothic\">at red and an automatic device on the&nbsp;</font></div><div style=\"text-align: center;\"><font color=\"#eeeeee\" face=\"League Gothic\">track turned the train’s brakes on.</font></div>",
          "selected": false
        }
      ],
      "z": 0,
      "impScale": 3,
      "rotateX": 0,
      "rotateY": 0,
      "rotateZ": 0,
      "index": 21,
      "selected": false,
      "active": false,
      "surface": "bg-surf-grad-lavender",
      "x": 1317,
      "y": 847
    },
    {
      "components": [
        {
          "TextBox": {},
          "x": 474,
          "y": 354,
          "scale": {
            "x": 1,
            "y": 1
          },
          "type": "TextBox",
          "size": 48,
          "text": "<font color=\"#eeeeee\" face=\"League Gothic\">well...</font><br>",
          "selected": false
        }
      ],
      "z": 0,
      "impScale": 3,
      "rotateX": 0,
      "rotateY": 0,
      "rotateZ": 0,
      "index": 22,
      "selected": false,
      "active": false,
      "surface": "bg-surf-grad-black",
      "x": 1317,
      "y": 907
    },
    {
      "components": [
        {
          "TextBox": {},
          "x": 35,
          "y": 258,
          "scale": {
            "x": 1,
            "y": 1
          },
          "type": "TextBox",
          "size": 202,
          "text": "<font face=\"League Gothic\" color=\"#eeeeee\">DID YOU KNOW?...</font><br>",
          "selected": false
        }
      ],
      "z": 0,
      "impScale": 3,
      "rotateX": 0,
      "rotateY": 0,
      "rotateZ": 0,
      "index": 23,
      "selected": false,
      "active": false,
      "surface": "bg-custom-067fff",
      "x": 1315,
      "y": 1063
    },
    {
      "components": [
        {
          "TextBox": {},
          "x": 35,
          "y": 354,
          "scale": {
            "x": 1,
            "y": 1
          },
          "type": "TextBox",
          "size": 48,
          "text": "<font face=\"League Gothic\"><font color=\"#eeeeee\">Baker Street is the station with the most platforms – </font><font color=\"#f4e156\">10</font><font color=\"#eeeeee\">.</font></font><br>",
          "selected": false
        }
      ],
      "z": 0,
      "impScale": 3,
      "rotateX": 0,
      "rotateY": 0,
      "rotateZ": 0,
      "index": 24,
      "selected": false,
      "active": false,
      "surface": "bg-custom-067fff",
      "x": 1315,
      "y": 1094
    },
    {
      "components": [
        {
          "TextBox": {},
          "x": 35,
          "y": 353,
          "scale": {
            "x": 1,
            "y": 1
          },
          "type": "TextBox",
          "size": 48,
          "text": "<font color=\"#eeeeee\" face=\"League Gothic\">Out of the </font><font face=\"League Gothic\" color=\"#f4e156\">287 </font><font color=\"#eeeeee\" face=\"League Gothic\">stations, only </font><font face=\"League Gothic\" color=\"#f4e156\">29 </font><font color=\"#eeeeee\" face=\"League Gothic\">are south of the river Thames.</font><br>",
          "selected": false
        }
      ],
      "z": 0,
      "impScale": 3,
      "rotateX": 0,
      "rotateY": 0,
      "rotateZ": 0,
      "index": 25,
      "selected": false,
      "active": false,
      "surface": "bg-custom-067fff",
      "x": 1315,
      "y": 1110
    },
    {
      "components": [
        {
          "TextBox": {},
          "x": 35,
          "y": 354,
          "scale": {
            "x": 1,
            "y": 1
          },
          "type": "TextBox",
          "size": 48,
          "text": "<font color=\"#eeeeee\" face=\"League Gothic\">The most popular tube suicide time is</font><font face=\"League Gothic\" color=\"#f4e156\"> 11 am</font><font color=\"#eeeeee\" face=\"League Gothic\">.</font><br>",
          "selected": false
        }
      ],
      "z": 0,
      "impScale": 3,
      "rotateX": 0,
      "rotateY": 0,
      "rotateZ": 0,
      "index": 26,
      "selected": false,
      "active": false,
      "surface": "bg-custom-067fff",
      "x": 1315,
      "y": 1127
    },
    {
      "components": [
        {
          "TextBox": {},
          "x": 35,
          "y": 354,
          "scale": {
            "x": 1,
            "y": 1
          },
          "type": "TextBox",
          "size": 48,
          "text": "<font color=\"#eeeeee\" face=\"League Gothic\">The phrase </font><font face=\"League Gothic\" color=\"#f4e156\">MIND THE GAP</font><font color=\"#eeeeee\" face=\"League Gothic\"> originated on the Northern line in </font><font face=\"League Gothic\" color=\"#f4e156\">1968</font><font color=\"#eeeeee\" face=\"League Gothic\">.</font><br>",
          "selected": false
        }
      ],
      "z": 0,
      "impScale": 3,
      "rotateX": 0,
      "rotateY": 0,
      "rotateZ": 0,
      "index": 27,
      "selected": false,
      "active": false,
      "surface": "bg-custom-067fff",
      "x": 1315,
      "y": 1144
    },
    {
      "components": [
        {
          "TextBox": {},
          "x": 151,
          "y": 182,
          "scale": {
            "x": 1,
            "y": 1
          },
          "type": "TextBox",
          "size": 199,
          "text": "<font face=\"League Gothic\" color=\"#d07777\">ALMOST 60%</font><br>",
          "selected": false
        },
        {
          "TextBox": {},
          "x": 151,
          "y": 392,
          "scale": {
            "x": 1,
            "y": 1
          },
          "type": "TextBox",
          "size": 66,
          "text": "<font face=\"League Gothic\" style=\"color: rgb(231, 231, 231);\">of the London Underground is actually \n<br></font><font face=\"League Gothic, sans-serif\"><font color=\"#d07777\">above</font><font color=\"#e7e7e7\"> the ground and </font><font color=\"#d07777\">not underground</font></font><br>",
          "selected": false
        }
      ],
      "z": 0,
      "impScale": 3,
      "rotateX": 0,
      "rotateY": 0,
      "rotateZ": 3.14,
      "index": 28,
      "selected": false,
      "active": false,
      "surface": "bg-surf-grad-black",
      "x": 1310,
      "y": 1306,
      "background": "bg-transparent"
    },
    {
      "components": [
        {
          "TextBox": {},
          "x": 413,
          "y": 354,
          "scale": {
            "x": 1,
            "y": 1
          },
          "type": "TextBox",
          "size": 48,
          "text": "<font face=\"League Gothic\" color=\"#484848\">STILL HUNGRY?</font><br>",
          "selected": false
        }
      ],
      "z": 0,
      "impScale": 3,
      "rotateX": 0,
      "rotateY": 0,
      "rotateZ": 0,
      "index": 29,
      "selected": false,
      "active": false,
      "background": "bg-transparent",
      "x": 2855,
      "y": 827
    },
    {
      "components": [
        {
          "TextBox": {},
          "x": 388,
          "y": 354,
          "scale": {
            "x": 1,
            "y": 1
          },
          "type": "TextBox",
          "size": 48,
          "text": "<font face=\"League Gothic\" color=\"#484848\">GET SOME SOURCES</font><br>",
          "selected": false
        }
      ],
      "z": 0,
      "impScale": 3,
      "rotateX": 0,
      "rotateY": 0,
      "rotateZ": 0,
      "index": 30,
      "selected": false,
      "active": false,
      "background": "bg-default",
      "x": 2855,
      "y": 840
    },
    {
      "components": [
        {
          "TextBox": {},
          "x": 38,
          "y": 227,
          "scale": {
            "x": 1,
            "y": 1
          },
          "type": "TextBox",
          "size": 35,
          "text": "<font face=\"League Gothic\" color=\"#484848\">https://tfl.gov.uk</font>",
          "selected": false
        },
        {
          "TextBox": {},
          "x": 38,
          "y": 277,
          "scale": {
            "x": 1,
            "y": 1
          },
          "type": "TextBox",
          "size": 35,
          "text": "<font face=\"League Gothic\" color=\"#484848\">http://stations.aeracode.org</font>",
          "selected": false
        },
        {
          "TextBox": {},
          "x": 38,
          "y": 327,
          "scale": {
            "x": 1,
            "y": 1
          },
          "type": "TextBox",
          "size": 35,
          "text": "<font face=\"League Gothic\" color=\"#484848\">https://www.youtube.com/channel/UCpVm7bg6pXKo1Pr6k5kxG9A</font>",
          "selected": false
        },
        {
          "TextBox": {},
          "x": 38,
          "y": 377,
          "scale": {
            "x": 1,
            "y": 1
          },
          "type": "TextBox",
          "size": 35,
          "text": "<font face=\"League Gothic\" color=\"#484848\">https://www.1stcontact.com/blog/featured-news/50-interesting-facts-london-underground</font>",
          "selected": false
        },
        {
          "TextBox": {},
          "x": 38,
          "y": 427,
          "scale": {
            "x": 1,
            "y": 1
          },
          "type": "TextBox",
          "size": 35,
          "text": "<font face=\"League Gothic\" color=\"#484848\">http://www.londonlovesbusiness.com/business-news/london-transport/<br></font>",
          "selected": false
        },
        {
          "TextBox": {},
          "x": 38,
          "y": 477,
          "scale": {
            "x": 1,
            "y": 1
          },
          "type": "TextBox",
          "size": 35,
          "text": "<font face=\"League Gothic\" color=\"#484848\">https://en.wikipedia.org/wiki/London_Underground</font>",
          "selected": false
        }
      ],
      "z": 0,
      "impScale": 3,
      "rotateX": 0,
      "rotateY": 0,
      "rotateZ": 0,
      "index": 31,
      "selected": false,
      "active": false,
      "x": 3175,
      "y": 827
    },
    {
      "components": [
        {
          "src": "http://i.imgur.com/3mwYguu.png",
          "type": "Image",
          "x": 412,
          "y": 166,
          "scale": {
            "x": 1,
            "y": 1
          },
          "imageType": "PNG",
          "selected": false
        },
        {
          "TextBox": {},
          "x": 238,
          "y": 376,
          "scale": {
            "x": 1,
            "y": 1
          },
          "type": "TextBox",
          "size": 48,
          "text": "<font color=\"#eeeeee\">Presentation by G. SEROV</font><br>",
          "selected": false
        },
        {
          "TextBox": {},
          "x": 263,
          "y": 463,
          "scale": {
            "x": 1,
            "y": 1
          },
          "type": "TextBox",
          "size": 48,
          "text": "<font color=\"#676767\">created using impress.js</font><br>",
          "selected": false
        },
        {
          "TextBox": {},
          "x": 265,
          "y": 523,
          "scale": {
            "x": 1,
            "y": 1
          },
          "type": "TextBox",
          "size": 30,
          "text": "<font face=\"Lato\" color=\"#486576\">https://github.com/impress/impress.js</font>",
          "selected": false
        }
      ],
      "z": 0,
      "impScale": 3,
      "rotateX": 0,
      "rotateY": 0,
      "rotateZ": 0,
      "index": 32,
      "selected": false,
      "active": false,
      "surface": "bg-surf-grad-black",
      "x": 3172,
      "y": 1005
    },
    {
      "components": [
        {
          "TextBox": {},
          "x": 89,
          "y": 341,
          "scale": {
            "x": 1,
            "y": 1
          },
          "type": "TextBox",
          "size": 72,
          "text": "<font color=\"#969696\">THANKS FOR WATCHING</font>",
          "selected": false
        }
      ],
      "z": 0,
      "impScale": 3,
      "rotateX": 0,
      "rotateY": 0,
      "rotateZ": 3.14,
      "index": 33,
      "selected": false,
      "active": false,
      "surface": "bg-surf-grad-light",
      "x": 3172,
      "y": 1191
    }
  ],
  "background": "bg-transparent",
  "activeSlide": {
    "components": [
      {
        "TextBox": {},
        "x": 80,
        "y": 376,
        "scale": {
          "x": 1,
          "y": 1
        },
        "type": "TextBox",
        "size": 56,
        "text": "<font face=\"Lato\" color=\"#9c9c9c\">It seems to be interesting.</font>",
        "selected": false
      },
      {
        "TextBox": {},
        "x": 80,
        "y": 258,
        "scale": {
          "x": 1,
          "y": 1
        },
        "type": "TextBox",
        "size": 96,
        "text": "<font face=\"Lato\" color=\"#313131\">Let's check this out!</font>",
        "selected": false
      },
      {
        "src": "http://i.imgur.com/yMvdQas.png",
        "type": "Image",
        "x": 774,
        "y": 458,
        "scale": {
          "x": 1,
          "y": 1
        },
        "imageType": "PNG",
        "selected": false
      }
    ],
    "z": 0,
    "impScale": 3,
    "rotateX": 0,
    "rotateY": 0,
    "rotateZ": 0,
    "index": 6,
    "selected": true,
    "active": true,
    "x": 814,
    "y": 189
  },
  "fileName": "london-underground",
  "surface": "bg-default",
  "customStylesheet": "/*.example {\n\tborder: 4px groove orange;\n}*/\n\n.strut-surface .bg_dark {\n    background-color: rgba(0,0,0,0.25);\n}",
  "deckVersion": "1.0",
  "cannedTransition": "none",
  "customBackgrounds": {
    "bgs": [
      {
        "klass": "bg-custom-a0a0a0",
        "style": "#a0a0a0"
      },
      {
        "klass": "bg-custom-067fff",
        "style": "#067fff"
      },
      {
        "klass": "bg-custom-000000",
        "style": "#000000"
      }
    ]
  },
  "overviewX": 1650.5,
  "overviewY": 753
}